Name,WeightClassKg,Division,Sex,Best3SquatKg,Squat4Kg,Best3BenchKg,Best3DeadliftKg,Deadlift4Kg,TotalKg,Event,Equipment,Place
Barbara Talmadge,44,Open,F,115,,60,127.5,,302.5,SBD,Single-ply,1
Nable,48,Open,F,105,,52.5,125,,282.5,SBD,Single-ply,1
Hudgens,52,Open,F,87.5,,50,100,,237.5,SBD,Single-ply,1
Mary Hetzel,56,Open,F,145,,77.5,155,,377.5,SBD,Single-ply,1
Capps,56,Open,F,112.5,,57.5,142.5,,312.5,SBD,Single-ply,2
Fearon,67.5,Open,F,110,,57.5,115,,282.5,SBD,Single-ply,1
Roger,75,Open,F,160,,80,137.5,,377.5,SBD,Single-ply,1
Martinez,75,Open,F,125,,70,125,,320,SBD,Single-ply,2
Renfro,82.5,Open,F,128.5,,80,170,,378.5,SBD,Single-ply,1
Curry,90+,Open,F,200,,132.5,207.5,,540,SBD,Single-ply,1
Frost,48,Juniors,F,82.5,,55,121,,258.5,SBD,Single-ply,1
Bell,52,Juniors,F,122.5,,62.5,107.5,,292.5,SBD,Single-ply,1
Maxwell,52,Juniors,F,92.5,,42.5,115,,250,SBD,Single-ply,2
Bowshier,60,Juniors,F,147.5,,80,157.5,,385,SBD,Single-ply,1
Walker,75,Juniors,F,,,,,,,SBD,Single-ply,DQ
Hatch,82.5,Juniors,F,,,,,,,SBD,Single-ply,DQ
Russow,90+,Juniors,F,192.5,195,92.5,157.5,,442.5,SBD,Single-ply,1
Gutierrez,52,Submasters,F,100,,60,112.5,,272.5,SBD,Single-ply,1
Mary Hetzel,60,Submasters,F,145,,77.5,155,,377.5,SBD,Single-ply,1
Capps,60,Submasters,F,112.5,,57.5,142.5,,312.5,SBD,Single-ply,2
Hashimoto,67.5,Submasters,F,105,,50,145,,300,SBD,Single-ply,1
R. McKinney,75,Submasters,F,172.5,,87.5,187.5,192.5,447.5,SBD,Single-ply,1
Martinez,75,Submasters,F,125,,70,125,,320,SBD,Single-ply,2
Calhoun,82.5,Submasters,F,140,,85,155,,380,SBD,Single-ply,1
Renfro,82.5,Submasters,F,128.5,,80,170,,378.5,SBD,Single-ply,2
A. Nobbe,56,Masters,F,77.5,82.5,35,92.5,,205,SBD,Single-ply,1
Craig,67.5,Masters,F,75,,42.5,100,,217.5,SBD,Single-ply,1
Kay Lamb,67.5,Masters,F,82.5,,37.5,90,,210,SBD,Single-ply,2
Hudgins,75,Masters,F,125,135,65,165,,355,SBD,Single-ply,1
Goldberg,52,Open,M,,,,,,,SBD,Single-ply,DQ
Dave Kennedy #1,56,Open,M,161,166,92.5,165,,418.5,SBD,Single-ply,1
Franklin,60,Open,M,182.5,,115,207.5,,505,SBD,Single-ply,1
Johnson,60,Open,M,105,,140,137.5,,382.5,SBD,Single-ply,2
Davis,60,Open,M,165,,,,,,SBD,Single-ply,DQ
Meakins,67.5,Open,M,177.5,,125,220,,522.5,SBD,Single-ply,1
Coats,67.5,Open,M,170,,125,200,,495,SBD,Single-ply,2
Mike Ewoldsen,67.5,Open,M,,,,,,,SBD,Single-ply,DQ
Reinhert,75,Open,M,262.5,,132.5,262.5,,657.5,SBD,Single-ply,1
Broussard,75,Open,M,227.5,,137.5,242.5,,607.5,SBD,Single-ply,2
Robinson,75,Open,M,195,,112.5,185,,492.5,SBD,Single-ply,3
Atkinson,82.5,Open,M,242.5,,162.5,245,,650,SBD,Single-ply,1
Skeens,82.5,Open,M,262.5,,,,,,SBD,Single-ply,DQ
Goodsen,90,Open,M,280,,195,275,,750,SBD,Single-ply,1
Hudgins,90,Open,M,252.5,,170,260,,682.5,SBD,Single-ply,2
Lopez,90,Open,M,237.5,,115,227.5,,580,SBD,Single-ply,3
Brown,90,Open,M,192.5,,162.5,192.5,,547.5,SBD,Single-ply,4
Pruitt,90,Open,M,185,,100,195,,480,SBD,Single-ply,5
Jones,90,Open,M,62.5,,217.5,65,,345,SBD,Single-ply,6
Sadoski,100,Open,M,295,,170,290,,755,SBD,Single-ply,1
Ward,100,Open,M,287.5,,172.5,285,,745,SBD,Single-ply,2
Bob Boyles,100,Open,M,295,,160,260,,715,SBD,Single-ply,3
T. Tinsman,100,Open,M,240,,170,280,,690,SBD,Single-ply,4
French,100,Open,M,,,,,,,SBD,Single-ply,DQ
Capps,110,Open,M,265,,175,282.5,,722.5,SBD,Single-ply,1
Eville,110,Open,M,235,,152.5,240,,627.5,SBD,Single-ply,2
Jim Duree,110,Open,M,,,,,,,SBD,Single-ply,DQ
Tarras,125,Open,M,320,,217.5,280,,817.5,SBD,Single-ply,1
Angton,125,Open,M,257.5,,192.5,277.5,,727.5,SBD,Single-ply,2
Sheffler,125,Open,M,272.5,,155,275,,702.5,SBD,Single-ply,3
Tony Saunders,140+,Open,M,392.5,,230,277.5,,900,SBD,Single-ply,1
Nehumi Tuihalamaka,140+,Open,M,395,,185,320,,900,SBD,Single-ply,2
David Oyler,140+,Open,M,322.5,,177.5,280,,780,SBD,Single-ply,3
Dayon,140+,Open,M,250,,185,235,,670,SBD,Single-ply,4
Kennedy,56,Masters,M,161,166,92.5,165,,418.5,SBD,Single-ply,1
Holden,67.5,Masters,M,165,,100,180,,445,SBD,Single-ply,1
Johnson,75,Masters,M,180,,130,197.5,,507.5,SBD,Single-ply,1
Atkinson,82.5,Masters,M,242.5,,162.5,245,,650,SBD,Single-ply,1
Bell,82.5,Masters,M,215,,155,232.5,,602.5,SBD,Single-ply,2
Close,90,Masters,M,257.5,,165,265,,687.5,SBD,Single-ply,1
Gaibreath,90,Masters,M,157.5,,90,185,,432.5,SBD,Single-ply,2
T. Tinsman,100,Masters,M,240,,170,280,,690,SBD,Single-ply,1
L. Kye,110,Masters,M,317.5,,170,250,,737.5,SBD,Single-ply,1
Jim Duree,110,Masters,M,260,,132.5,230,,622.5,SBD,Single-ply,2
Munger,125,Masters,M,205,,127.5,232.5,,565,SBD,Single-ply,1
Smith,125,Masters,M,240,,115,197.5,,552.5,SBD,Single-ply,2
Carlson,125,Masters,M,160,,180,110,,450,SBD,Single-ply,3
Holland,140,Masters,M,255,,137.5,232.5,,625,SBD,Single-ply,1
Tate,67.5,Juniors,M,160,,80,177.5,,417.5,SBD,Single-ply,1
May,67.5,Juniors,M,132.5,,102.5,150,,385,SBD,Single-ply,2
Davis,67.5,Juniors,M,,,,,,,SBD,Single-ply,DQ
MacKenzie,67.5,Juniors,M,,,,,,,SBD,Single-ply,DQ
Mask,75,Juniors,M,182.5,,97.5,192.5,,472.5,SBD,Single-ply,1
Comelson,75,Juniors,M,160,,100,185,,445,SBD,Single-ply,2
Bryant,82.5,Juniors,M,210,,132.5,202.5,,545,SBD,Single-ply,1
Martinez,82.5,Juniors,M,200,,115,200,,515,SBD,Single-ply,2
Short,82.5,Juniors,M,152.5,,112.5,160,,425,SBD,Single-ply,3
Wehlander,82.5,Juniors,M,,,,,,,SBD,Single-ply,DQ
Marshall,90,Juniors,M,282.5,,152.5,250,,685,SBD,Single-ply,1
Hardin,90,Juniors,M,245,,145,227.5,,617.5,SBD,Single-ply,2
Foos,90,Juniors,M,227.5,,155,215,,597.5,SBD,Single-ply,3
George,90,Juniors,M,170,,92.5,192.5,,455,SBD,Single-ply,4
Zimmer,100,Juniors,M,282.5,,195,237.5,,715,SBD,Single-ply,1
Kahle,100,Juniors,M,250,,165,260,,675,SBD,Single-ply,2
Meek,110,Juniors,M,237.5,,155,240,,632.5,SBD,Single-ply,1
Graham,125,Juniors,M,205,,137.5,262.5,,605,SBD,Single-ply,1
Pjesky,140,Juniors,M,240,,150,185,,575,SBD,Single-ply,1
Woodworth,67.5,Submasters,M,207.5,,152.5,220,,580,SBD,Single-ply,1
Meekins,67.5,Submasters,M,177.5,,125,220,,522.5,SBD,Single-ply,2
Young,67.5,Submasters,M,125,,77.5,160,,362.5,SBD,Single-ply,3
Reinhert,75,Submasters,M,262.5,,132.5,262.5,,657.5,SBD,Single-ply,1
Broussard,75,Submasters,M,227.5,,137.5,242.5,,607.5,SBD,Single-ply,2
Gill,82.5,Submasters,M,207.5,,120,250,,577.5,SBD,Single-ply,1
Oliger,82.5,Submasters,M,182.5,,120,200,,502.5,SBD,Single-ply,2
Hambric,82.5,Submasters,M,,,,,,,SBD,Single-ply,DQ
Sisso,90,Submasters,M,220,,152.5,222.5,,595,SBD,Single-ply,1
Lopez,90,Submasters,M,237.5,,115,227.5,,580,SBD,Single-ply,2
Huffman,100,Submasters,M,297.5,,205,262.5,,765,SBD,Single-ply,1
Ward,100,Submasters,M,287.5,,172.5,285,,745,SBD,Single-ply,2
Bob Boyles,100,Submasters,M,295,,160,260,,715,SBD,Single-ply,3
Jackson,100,Submasters,M,265,,172.5,277.5,,715,SBD,Single-ply,4
Howard,100,Submasters,M,220,,160,240,,620,SBD,Single-ply,5
French,100,Submasters,M,,,,,,,SBD,Single-ply,DQ
Capps,110,Submasters,M,265,,175,282.5,,722.5,SBD,Single-ply,1
Tarras,125,Submasters,M,320,,217.5,280,,817.5,SBD,Single-ply,1
Woodson,125,Submasters,M,100,,210,100,,410,SBD,Single-ply,2
Tony Saunders,140+,Submasters,M,392.5,,230,277.5,,900,SBD,Single-ply,1
David Oyler,140+,Submasters,M,322.5,,177.5,280,285,780,SBD,Single-ply,2
Peek,67.5,Grandmasters,M,160,,92.5,182.5,,435,SBD,Single-ply,1
Frost,48,Juniors,F,,,55,,,55,B,Single-ply,1
Hatch,82.5,Juniors,F,,,60,,,60,B,Single-ply,2
Gutierrez,82.5,Juniors,F,,,60,,,60,B,Single-ply,3
Black,67.5,Juniors,F,,,70,,,70,B,Single-ply,1
Renfro,82.5,Juniors,F,,,80,,,80,B,Single-ply,1
Griffin,56,Open,F,,,82.5,,,82.5,B,Single-ply,1
A. Nobbe,56,Grandmasters,F,,,35,,,35,B,Single-ply,1
Mary Hetzel,60,Pure,F,,,77.5,,,77.5,B,Single-ply,1
Koe,60,Pure,F,,,57.5,,,57.5,B,Single-ply,2
Black,67.5,Pure,F,,,72.5,,,72.5,B,Single-ply,1
Koe,60,Natural,F,,,57.5,,,57.5,B,Single-ply,1
Curry,90+,Masters,F,,,132.5,,,132.5,B,Single-ply,1
Sihani,90+,Masters,F,,,123.5,,,123.5,B,Single-ply,2
Dave Kennedy #1,56,Pure,M,,,92.5,,,92.5,B,Single-ply,1
Peterson,60,Pure,M,,,102.5,,,102.5,B,Single-ply,1
Robert Trujillo,60,Pure,M,,,82.5,,,82.5,B,Single-ply,2
Stewart,67.5,Pure,M,,,163.5,,,163.5,B,Single-ply,1
Henning,67.5,Pure,M,,,157.5,,,157.5,B,Single-ply,2
Davis,67.5,Pure,M,,,125,,,125,B,Single-ply,3
Coats,67.5,Pure,M,,,125,,,125,B,Single-ply,4
Del Principle,75,Pure,M,,,162.5,,,162.5,B,Single-ply,1
Hines,75,Pure,M,,,155,,,155,B,Single-ply,2
Ford,75,Pure,M,,,132.5,,,132.5,B,Single-ply,3
Vaughn,75,Pure,M,,,125,,,125,B,Single-ply,4
Hrasch,75,Pure,M,,,,,,,B,Single-ply,DQ
Shaikowski,82.5,Pure,M,,,182.5,,,182.5,B,Single-ply,1
Atkinson,82.5,Pure,M,,,162.5,,,162.5,B,Single-ply,2
Ford,82.5,Pure,M,,,145,,,145,B,Single-ply,3
Ratajczvk,82.5,Pure,M,,,137.5,,,137.5,B,Single-ply,4
Colwell,82.5,Pure,M,,,125,,,125,B,Single-ply,5
Skeens,82.5,Pure,M,,,,,,,B,Single-ply,DQ
Jones,90,Pure,M,,,217.5,,,217.5,B,Single-ply,1
Masters,90,Pure,M,,,185,,,185,B,Single-ply,2
Giles,90,Pure,M,,,185,,,185,B,Single-ply,3
Evatt,90,Pure,M,,,122.5,,,122.5,B,Single-ply,4
Sweeney,100,Pure,M,,,202.5,,,202.5,B,Single-ply,1
McIntosh,100,Pure,M,,,192.5,,,192.5,B,Single-ply,2
Boone,100,Pure,M,,,192.5,,,192.5,B,Single-ply,3
Garcia,100,Pure,M,,,190,,,190,B,Single-ply,4
Ritzier,100,Pure,M,,,185,,,185,B,Single-ply,5
McIntyre,100,Pure,M,,,172.5,,,172.5,B,Single-ply,6
Robinson,110,Pure,M,,,245,,,245,B,Single-ply,1
Metzger,110,Pure,M,,,207.5,,,207.5,B,Single-ply,2
Jones,110,Pure,M,,,190,,,190,B,Single-ply,3
Crumbley,110,Pure,M,,,160,,,160,B,Single-ply,4
Angton,125,Pure,M,,,192.5,,,192.5,B,Single-ply,1
Briggs,125,Pure,M,,,177.5,,,177.5,B,Single-ply,2
Henderson,125,Pure,M,,,165,,,165,B,Single-ply,3
Bender,140,Pure,M,,,212.5,,,212.5,B,Single-ply,1
Tony Saunders,140+,Pure,M,,,230,,,230,B,Single-ply,1
Dayon,140+,Pure,M,,,185,,,185,B,Single-ply,2
Dave Kennedy #1,56,Masters,M,,,92.5,,,92.5,B,Single-ply,1
Robert Trujillo,60,Masters,M,,,82.5,,,82.5,B,Single-ply,1
Stewart,67.5,Masters,M,,,132.5,,,132.5,B,Single-ply,1
Ford,75,Masters,M,,,132.5,,,132.5,B,Single-ply,1
Belanger,82.5,Masters,M,,,132.5,,,132.5,B,Single-ply,1
France,90,Masters,M,,,120,,,120,B,Single-ply,2
Close,90,Masters,M,,,165,,,165,B,Single-ply,1
Sweeney,100,Masters,M,,,202.5,,,202.5,B,Single-ply,1
Akins,100,Masters,M,,,172.5,,,172.5,B,Single-ply,2
Griffin,100,Masters,M,,,,,,,B,Single-ply,DQ
Carlson,125,Masters,M,,,180,,,180,B,Single-ply,1
Peterson,60,Natural,M,,,102.5,,,102.5,B,Single-ply,1
Davis,60,Natural,M,,,,,,,B,Single-ply,DQ
Henning,67.5,Natural,M,,,157.5,,,157.5,B,Single-ply,1
Coats,67.5,Natural,M,,,125,,,125,B,Single-ply,2
Hines,75,Natural,M,,,155,,,155,B,Single-ply,1
Gardina,75,Natural,M,,,137.5,,,137.5,B,Single-ply,2
Vaughn,75,Natural,M,,,125,,,125,B,Single-ply,3
Hrasch,75,Natural,M,,,,,,,B,Single-ply,DQ
Severn,82.5,Natural,M,,,177.5,,,177.5,B,Single-ply,1
Ratajczyk,82.5,Natural,M,,,137.5,,,137.5,B,Single-ply,2
France,90,Natural,M,,,210,,,210,B,Single-ply,1
Harrison,90,Natural,M,,,182.5,,,182.5,B,Single-ply,2
Sweeney,100,Natural,M,,,202.5,,,202.5,B,Single-ply,1
McIntosh,100,Natural,M,,,192.5,,,192.5,B,Single-ply,2
Ritzier,100,Natural,M,,,185,,,185,B,Single-ply,3
McIntyre,100,Natural,M,,,172.5,,,172.5,B,Single-ply,4
Akins,100,Natural,M,,,172.5,,,172.5,B,Single-ply,5
Bums,110,Natural,M,,,195,,,195,B,Single-ply,1
Jones,110,Natural,M,,,190,,,190,B,Single-ply,2
Ferguson,110,Natural,M,,,180,,,180,B,Single-ply,3
Miller Edwards,110,Natural,M,,,180,,,180,B,Single-ply,4
Crumbley,110,Natural,M,,,160,,,160,B,Single-ply,5
Woodson,125,Natural,M,,,210,,,210,B,Single-ply,1
Henderson,125,Natural,M,,,165,,,165,B,Single-ply,2
Tabarlet,140+,Natural,M,,,145,,,145,B,Single-ply,1
Henning,67.5,Submasters II,M,,,157.5,,,157.5,B,Single-ply,1
Dunn,75,Submasters II,M,,,132.5,,,132.5,B,Single-ply,1
Jones,82.5,Submasters II,M,,,185,,,185,B,Single-ply,1
Fears,90,Submasters II,M,,,177.5,,,177.5,B,Single-ply,1
Boone,100,Submasters II,M,,,192.5,,,192.5,B,Single-ply,1
Metzger,110,Submasters II,M,,,207.5,,,207.5,B,Single-ply,1
Crumbley,110,Submasters II,M,,,160,,,160,B,Single-ply,2
Thomason,125,Submasters II,M,,,228.5,,,228.5,B,Single-ply,1
Tarras,125,Submasters II,M,,,217.5,,,217.5,B,Single-ply,2
Davis,67.5,Juniors,M,,,125,,,125,B,Single-ply,1
MacKenzie,67.5,Juniors,M,,,112.5,,,112.5,B,Single-ply,2
McNeill,75,Juniors,M,,,142.5,,,142.5,B,Single-ply,1
Braden,75,Juniors,M,,,115,,,115,B,Single-ply,2
Ford,82.5,Juniors,M,,,145,,,145,B,Single-ply,1
Ratajczvk,82.5,Juniors,M,,,137.5,,,137.5,B,Single-ply,2
Wehlander,82.5,Juniors,M,,,,,,,B,Single-ply,DQ
James,90,Juniors,M,,,165,,,165,B,Single-ply,1
Harris,90,Juniors,M,,,165,,,165,B,Single-ply,2
Link,100,Juniors,M,,,182.5,,,182.5,B,Single-ply,1
Brown,140,Juniors,M,,,197.5,,,197.5,B,Single-ply,1
Pjesky,140,Juniors,M,,,150,,,150,B,Single-ply,2
Gardina,75,Submasters I,M,,,137.5,,,137.5,B,Single-ply,1
Severn,82.5,Submasters I,M,,,177.5,,,177.5,B,Single-ply,1
Gilles,90,Submasters I,M,,,185,,,185,B,Single-ply,1
McIntosh,100,Submasters I,M,,,192.5,,,192.5,B,Single-ply,1
Garcia,100,Submasters I,M,,,190,,,190,B,Single-ply,2
Ritzler,100,Submasters I,M,,,185,,,185,B,Single-ply,3
McIntyre,100,Submasters I,M,,,172.5,,,172.5,B,Single-ply,4
Jones,110,Submasters I,M,,,190,,,190,B,Single-ply,1
Miller Edwards,110,Submasters I,M,,,180,,,180,B,Single-ply,2
Woodson,125,Submasters I,M,,,210,,,210,B,Single-ply,1
Bender,140,Submasters I,M,,,210,,,210,B,Single-ply,1
Dayon,140+,Submasters I,M,,,185,,,185,B,Single-ply,1
David Oyler,140+,Submasters I,M,,,177.5,,,177.5,B,Single-ply,2
Tabariet,140+,Submasters I,M,,,145,,,145,B,Single-ply,3
McClain,75,Masters II,M,,,132.5,,,132.5,B,Single-ply,1
Ray,75,Masters II,M,,,107.5,,,107.5,B,Single-ply,2
Hrasch,75,Masters II,M,,,,,,,B,Single-ply,DQ
Atkinson,82.5,Masters II,M,,,162.5,,,162.5,B,Single-ply,1
Shoaf,82.5,Masters II,M,,,132.5,,,132.5,B,Single-ply,2
Evatt,90,Masters II,M,,,122.5,,,122.5,B,Single-ply,1
Lamb,100,Masters II,M,,,132.5,,,132.5,B,Single-ply,1
Hood,110,Masters II,M,,,216,,,216,B,Single-ply,1
Anderson,110,Masters II,M,,,182.5,,,182.5,B,Single-ply,2
Hogan,125,Masters II,M,,,,,,,B,Single-ply,DQ
Evatt,90,Masters III,M,,,122.5,,,122.5,B,Single-ply,1
McIntyre,125,Masters III,M,,,162.5,,,162.5,B,Single-ply,1
Leavy,125,Masters III,M,,,162.5,,,162.5,B,Single-ply,2
Schaan,125,Masters III,M,,,115,,,115,B,Single-ply,3
