Division,WeightClassKg,Place,Name,Team,BodyweightKg,Best3SquatKg,Best3BenchKg,Best3DeadliftKg,TotalKg,Equipment,Event,Sex
Girls,44.23,1,Jackie Aguirre,Diboll,39.01,49.9,22.68,52.16,124.74,Single-ply,SBD,F
Girls,47.85,1,Chloe Brown,Joaquin,47.81,117.93,49.9,122.47,290.3,Single-ply,SBD,F
Girls,47.85,2,Breanna Ingram,Longview Pine Tree,47.45,106.59,54.43,122.47,283.5,Single-ply,SBD,F
Girls,47.85,3,Amber Calvert,Huntington,47.54,63.5,31.75,81.65,176.9,Single-ply,SBD,F
Girls,51.94,1,Francely Lopez,Longview Pine Tree,51.89,124.74,49.9,140.61,315.25,Single-ply,SBD,F
Girls,51.94,2,Taylor Tamez,Longview Pine Tree,49.08,120.2,54.43,120.2,294.84,Single-ply,SBD,F
Girls,51.94,3,Kaylor Williams,Tyler Chapel Hill,51.89,102.06,36.29,111.13,249.48,Single-ply,SBD,F
Girls,51.94,4,Brianna Suell,Center,51.85,90.72,34.02,102.06,226.8,Single-ply,SBD,F
Girls,51.94,5,Melissa Butler,Longview Pine Tree,48.26,83.91,31.75,97.52,213.19,Single-ply,SBD,F
Girls,51.94,6,Caroline Develin,Beckville,51.53,83.91,38.56,83.91,206.38,Single-ply,SBD,F
Girls,51.94,7,Brooke Boyd,Huntington,50.8,63.5,38.56,92.99,195.04,Single-ply,SBD,F
Girls,51.94,8,Mallory Burton,Huntington,49.71,61.23,31.75,83.91,176.9,Single-ply,SBD,F
Girls,56.02,1,Olivia Forbis,Longview Pine Tree,55.34,106.59,54.43,111.13,272.16,Single-ply,SBD,F
Girls,56.02,2,Kendol Pitts,Tyler Chapel Hill,55.79,99.79,43.09,104.33,247.21,Single-ply,SBD,F
Girls,56.02,3,Heather Holtzclaw,Huntington,52.25,58.97,34.02,90.72,183.7,Single-ply,SBD,F
Girls,60.1,1,Savanah Talbert,Shelbyville,59.96,108.86,45.36,115.67,269.89,Single-ply,SBD,F
Girls,60.1,2,Holli Minor,Hallsville,57.61,97.52,45.36,113.4,256.28,Single-ply,SBD,F
Girls,60.1,3,Raven Reese,Longview Pine Tree,60.06,95.25,47.63,108.86,251.74,Single-ply,SBD,F
Girls,60.1,4,Destiny Boyd,Huntington,59.87,92.99,40.82,113.4,247.21,Single-ply,SBD,F
Girls,60.1,5,Rachel Bridges,Beckville,59.87,88.45,43.09,113.4,244.94,Single-ply,SBD,F
Girls,60.1,6,Asia Malone,Longview Pine Tree,59.96,97.52,38.56,106.59,242.67,Single-ply,SBD,F
Girls,60.1,7,Baylee Bradley,Henderson,59.24,86.18,52.16,99.79,238.14,Single-ply,SBD,F
Girls,67.36,1,Rylee Hudspeth,Center,65.18,111.13,54.43,138.35,303.91,Single-ply,SBD,F
Girls,67.36,2,Britney Dixon,Beckville,61.23,92.99,58.97,111.13,263.08,Single-ply,SBD,F
Girls,67.36,3,Nohemi Saucedo,Beckville,65.32,92.99,45.36,106.59,244.94,Single-ply,SBD,F
Girls,67.36,4,Rosa Castillo,Center,64.27,79.38,49.9,102.06,231.33,Single-ply,SBD,F
Girls,67.36,5,Tori Self,Henderson,65.41,92.99,38.56,92.99,224.53,Single-ply,SBD,F
Girls,67.36,6,Devene Smith,Shelbyville,63.32,90.72,38.56,90.72,219.99,Single-ply,SBD,F
Girls,67.36,7,Scyriah Wilcots,Tyler Chapel Hill,63.41,79.38,45.36,90.72,215.46,Single-ply,SBD,F
Girls,67.36,DQ,Lindsey Holbrook,Shelbyville,64.14,90.72,31.75,,,Single-ply,SBD,F
Girls,75.07,1,Romie Castilleja,Diboll,69.58,117.93,52.16,133.81,303.91,Single-ply,SBD,F
Girls,75.07,2,Chandler UpChurch,Pollok Central,72.94,113.4,58.97,131.54,303.91,Single-ply,SBD,F
Girls,75.07,3,Sabrina Garcia,Diboll,71.76,122.47,47.63,120.2,290.3,Single-ply,SBD,F
Girls,75.07,4,Christina Hadnot,Huntington,67.86,104.33,47.63,117.93,269.89,Single-ply,SBD,F
Girls,75.07,5,Andrea Lee,Longview Pine Tree,73.48,104.33,56.7,104.33,265.35,Single-ply,SBD,F
Girls,75.07,6,Desiree Stephney,Beckville,69.31,95.25,52.16,106.59,254.01,Single-ply,SBD,F
Girls,75.07,7,Loren Johnson,Joaquin,73.21,97.52,45.36,102.06,244.94,Single-ply,SBD,F
Girls,75.07,8,Sharleis Dunn,Hallsville,69.04,52.16,38.56,65.77,156.49,Single-ply,SBD,F
Girls,82.33,1,Harlie Hagler,Shelbyville,79.74,149.69,61.23,131.54,342.46,Single-ply,SBD,F
Girls,82.33,2,Jaz Athins,Joaquin,78.93,117.93,54.43,120.2,292.57,Single-ply,SBD,F
Girls,82.33,3,Meagan Galan,Pollok Central,78.02,104.33,47.63,115.67,267.62,Single-ply,SBD,F
Girls,90.04,1,Hannah Lipsey,Celeste,86.18,129.27,77.11,113.4,319.78,Single-ply,SBD,F
Girls,90.04,2,Antoinette Burrell,Woodville,86.64,120.2,63.5,97.52,281.23,Single-ply,SBD,F
Girls,90.04,3,Tatum Aguilar,Huntington,86.09,99.79,43.09,113.4,256.28,Single-ply,SBD,F
Girls,90.04,4,Montana Grimes,Huntington,89.36,90.72,56.7,97.52,244.94,Single-ply,SBD,F
Girls,90.04,5,Jayne Fuller,Shelbyville,84.64,92.99,40.82,102.06,235.87,Single-ply,SBD,F
Girls,90.04,6,Hannah Havard,Diboll,84.37,99.79,36.29,95.25,231.33,Single-ply,SBD,F
Girls,90.04,DQ,Mea McGill,Tyler Chapel Hill,89.18,,,,,Single-ply,SBD,F
Girls,100.02,1,Rachel Andrews,Center,98.88,136.08,61.23,138.35,335.66,Single-ply,SBD,F
Girls,100.02,2,Alisha Garcia,Huntington,98.97,136.08,61.23,129.27,326.59,Single-ply,SBD,F
Girls,100.02,DQ,Morgan Seals,Celeste,91.17,115.67,,,,Single-ply,SBD,F
Girls,100.02+,1,Ashlyn Reece,Huntington,101.24,206.38,81.65,161.03,449.06,Single-ply,SBD,F
Girls,100.02+,2,Adaija Criss,Tyler Chapel Hill,112.76,176.9,83.91,170.1,430.91,Single-ply,SBD,F
Girls,100.02+,3,Priscilla Wallace,Tyler Chapel Hill,140.16,172.37,86.18,156.49,415.04,Single-ply,SBD,F
Girls,100.02+,4,ShaTerra Swint,Diboll,120.84,163.29,63.5,127.01,353.8,Single-ply,SBD,F
Girls,100.02+,5,Jessica Sanford,Shelbyville,100.61,129.27,47.63,129.27,306.17,Single-ply,SBD,F
Girls,100.02+,6,Aileen Robles,Diboll,105.96,113.4,49.9,108.86,272.16,Single-ply,SBD,F
Girls,100.02+,7,Chelsea Lawerence,Center,145.15,86.18,63.5,97.52,247.21,Single-ply,SBD,F
