Name,Age,Division,BodyweightKg,WeightClassKg,Squat1Kg,Squat2Kg,Squat3Kg,Best3SquatKg,Bench1Kg,Bench2Kg,Bench3Kg,Best3BenchKg,Deadlift1Kg,Deadlift2Kg,Deadlift3Kg,Best3DeadliftKg,TotalKg,Sex,Event,Equipment,Place
Tierney Korotkin,53,Masters 50-59,62.6,67.5,,,,,58.97,-63.5,-63.5,58.97,,,,,58.97,F,B,Raw,1
Jo Anne Siskidis,25,Open,58.63,60,,,,,,,,,124.74,138.35,-145.15,138.35,138.35,F,D,Raw,1
Scott Birss,20,Juniors 20-23,64.52,67.5,127.01,136.08,142.88,142.88,74.84,81.65,-83.91,81.65,140.61,149.69,161.03,161.03,385.55,M,SBD,Wraps,1
Victor Awad,21,Juniors 20-23,65.32,67.5,83.91,92.99,102.06,102.06,88.45,95.25,102.06,102.06,142.88,158.76,163.29,163.29,367.41,M,SBD,Wraps,2
Marcos Cruz,23,Juniors 20-23,73.26,75,-181.44,-181.44,181.44,181.44,86.18,95.25,102.06,102.06,181.44,195.04,204.12,204.12,487.61,M,SBD,Wraps,1
Anthony Perez,20,Juniors 20-23,80.17,82.5,138.35,154.22,158.76,158.76,106.59,122.47,-127.01,122.47,151.95,170.1,181.44,181.44,462.66,M,SBD,Wraps,1
Nuey Thepyasuwan,41,Masters 40-49,70.99,75,138.35,-147.42,-147.42,138.35,97.52,-99.79,,97.52,170.1,-176.9,,170.1,405.97,M,SBD,Wraps,1
Kevin Canant,42,Masters 40-49,93.33,100,192.78,215.46,233.6,233.6,174.63,183.7,188.24,188.24,235.87,254.01,263.08,263.08,684.92,M,SBD,Wraps,1
Noel Lee,40,Masters 40-49,98.77,100,151.95,167.83,181.44,181.44,79.38,88.45,92.99,92.99,183.7,201.85,215.46,215.46,489.88,M,SBD,Wraps,2
Michael Placeres,58,Masters 50-59,88.99,90,142.88,151.95,-161.03,151.95,88.45,-92.99,92.99,92.99,181.44,190.51,-199.58,190.51,435.45,M,SBD,Wraps,1
David Turner,58,Masters 50-59,88.22,90,124.74,133.81,142.88,142.88,95.25,99.79,108.86,108.86,156.49,167.83,181.44,181.44,433.18,M,SBD,Wraps,2
Frank Roa,58,Masters 50-59,80.29,82.5,142.88,156.49,167.83,167.83,120.2,129.27,136.08,136.08,161.03,179.17,183.7,183.7,487.61,M,SBD,Wraps,1
Jeff Grenzke,66,Masters 60-69,81.31,82.5,97.52,104.33,108.86,108.86,92.99,97.52,-99.79,97.52,,,,,206.38,M,SB,Wraps,2
Kevin Canant,42,Military,93.33,100,192.78,215.46,233.6,233.6,174.63,183.7,188.24,188.24,235.87,254.01,263.08,263.08,684.92,M,SBD,Wraps,1
Mark Henderson II,26,Open,59.65,60,129.27,-133.81,-142.88,129.27,124.74,129.27,136.08,136.08,174.63,-181.44,181.44,181.44,446.79,M,SBD,Wraps,1
Louie Tabinas,28,Open,66.11,67.5,174.63,183.7,190.51,190.51,106.59,113.4,117.93,117.93,188.24,201.85,208.65,208.65,517.1,M,SBD,Wraps,1
Vincent Bardini,27,Open,66.11,67.5,165.56,179.17,188.24,188.24,79.38,92.99,-102.06,92.99,174.63,190.51,-197.31,190.51,471.74,M,SBD,Wraps,2
Lenin Del Castillo,27,Open,62.94,67.5,133.81,151.95,158.76,158.76,92.99,102.06,-106.59,102.06,183.7,197.31,206.38,206.38,467.2,M,SBD,Wraps,3
Scott Birss,20,Open,64.52,67.5,127.01,136.08,142.88,142.88,74.84,81.65,-83.91,81.65,140.61,149.69,161.03,161.03,385.55,M,SBD,Wraps,4
Rivpreet Arora,20,Open,73.6,75,174.63,183.7,188.24,188.24,92.99,104.33,-108.86,104.33,-181.44,188.24,197.31,197.31,489.88,M,SBD,Wraps,1
Fidel Zeigler,25,Open,79.92,82.5,174.63,185.97,192.78,192.78,115.67,124.74,-133.81,124.74,219.99,231.33,238.14,238.14,555.65,M,SBD,Wraps,1
Daniel Castle,25,Open,81.87,82.5,190.51,-199.58,-199.58,190.51,127.01,133.81,-142.88,133.81,199.58,204.12,208.65,208.65,532.97,M,SBD,Wraps,2
Jared Brown #1,25,Open,80.85,82.5,170.1,179.17,-183.7,179.17,115.67,122.47,-127.01,122.47,197.31,-206.38,,197.31,498.95,M,SBD,Wraps,3
Jeff Grenzke,66,Open,81.31,82.5,97.52,104.33,108.86,108.86,92.99,97.52,-99.79,97.52,,,,,206.38,M,SB,Wraps,4
Justin Ramirez,24,Open,89.24,90,188.24,206.38,-217.72,206.38,106.59,117.93,-127.01,117.93,238.14,256.28,265.35,265.35,589.67,M,SBD,Wraps,1
Ryan Soper,25,Open,89.58,90,183.7,199.58,-213.19,199.58,129.27,142.88,-149.69,142.88,219.99,233.6,238.14,238.14,580.6,M,SBD,Wraps,2
Christopher Goncalves,34,Open,84.25,90,131.54,140.61,149.69,149.69,86.18,95.25,-102.06,95.25,158.76,172.37,183.7,183.7,428.64,M,SBD,Wraps,3
Sonder Raymondo,30,Open,98.54,100,181.44,215.46,231.33,231.33,136.08,142.88,154.22,154.22,226.8,251.74,260.82,260.82,646.37,M,SBD,Wraps,1
Danny Troye-Rivera,25,Open,97.64,100,185.97,195.04,204.12,204.12,136.08,-142.88,142.88,142.88,226.8,240.4,249.48,249.48,596.47,M,SBD,Wraps,2
Jason Austin,26,Open,98.2,100,183.7,188.24,-192.78,188.24,142.88,151.95,-167.83,151.95,229.06,242.67,254.01,254.01,594.21,M,SBD,Wraps,3
Adam Morris,30,Open,98.88,100,127.01,136.08,140.61,140.61,79.38,86.18,-95.25,86.18,149.69,161.03,170.1,170.1,396.89,M,SBD,Wraps,4
D'Artagnan Byrd,26,Open,106.93,110,183.7,188.24,-199.58,188.24,136.08,-142.88,-142.88,136.08,206.38,215.46,226.8,226.8,551.11,M,SBD,Wraps,1
Josh Spaeth,33,Open,118.84,125,317.51,333.39,344.73,344.73,183.7,197.31,208.65,208.65,272.16,294.84,308.44,308.44,861.83,M,SBD,Wraps,1
Matt Brown #6,24,Open,114.76,125,206.38,226.8,,226.8,165.56,174.63,,174.63,294.84,317.51,,317.51,718.94,M,SBD,Wraps,2
Rob Hager,25,Open,141.52,140+,249.48,265.35,274.42,274.42,145.15,151.95,161.03,161.03,235.87,249.48,258.55,258.55,694,M,SBD,Wraps,1
Christopher Goncalves,34,Submasters 33-39,84.25,90,131.54,140.61,149.69,149.69,86.18,95.25,-102.06,95.25,158.76,172.37,183.7,183.7,428.64,M,SBD,Wraps,1
Jason Mica,19,Teen 18-19,81.19,82.5,206.38,224.53,231.33,231.33,115.67,129.27,-136.08,129.27,206.38,224.53,231.33,231.33,591.94,M,SBD,Wraps,1
Jackson Robison,18,Teen 18-19,109.09,110,174.63,181.44,192.78,192.78,97.52,102.06,106.59,106.59,213.19,-219.99,226.8,226.8,526.17,M,SBD,Wraps,1
James Fernandez,49,Masters 40-49,63.62,67.5,,,,,102.06,122.47,124.74,124.74,,,,,124.74,M,B,Raw,1
Joel Korotkin,53,Masters 50-59,86.75,90,,,,,115.67,120.2,122.47,122.47,,,,,122.47,M,B,Raw,1
Hasan Cheema,27,Open,79.7,82.5,,,,,138.35,145.15,149.69,149.69,-301.64,301.64,-308.44,301.64,451.32,M,BD,Raw,1
Ryan Nordby,37,Open,101.83,110,,,,,147.42,-161.03,-161.03,147.42,,,,,147.42,M,B,Raw,1
Danny Ngo,19,Teen,98.88,100,,,,,142.88,151.95,-156.49,151.95,247.21,265.35,272.16,272.16,424.11,M,BD,Raw,1
Taylor Eubanks,21,Juniors 20-23,55.22,56,95.25,99.79,102.06,102.06,-54.43,-54.43,-54.43,,,,,,102.06,F,SB,Wraps,1
Emily Raney,23,Juniors 20-23,65.77,67.5,92.99,97.52,-102.06,97.52,52.16,54.43,-56.7,54.43,138.35,147.42,154.22,154.22,306.17,F,SBD,Wraps,1
Stephanie Culton,35,Open,67.13,67.5,79.38,88.45,92.99,92.99,49.9,-54.43,-54.43,49.9,124.74,133.81,138.35,138.35,281.23,F,SBD,Wraps,2
Susie Christian,38,Open,65.32,67.5,56.7,61.23,65.77,65.77,40.82,45.36,47.63,47.63,81.65,86.18,92.99,92.99,206.38,F,SBD,Wraps,3
Esmeralda Sandoval,23,Juniors 20-23,69.29,75,79.38,88.45,95.25,95.25,47.63,52.16,54.43,54.43,108.86,117.93,127.01,127.01,276.69,F,SBD,Wraps,1
Hailey Chamberlin,20,Juniors 20-23,72.8,75,86.18,90.72,97.52,97.52,45.36,49.9,-54.43,49.9,95.25,99.79,104.33,104.33,251.74,F,SBD,Wraps,2
Kenzie Rossi,23,Juniors 20-23,71.44,75,74.84,79.38,83.91,83.91,47.63,52.16,-56.7,52.16,86.18,92.99,-95.25,92.99,229.06,F,SBD,Wraps,3
Michelle Almazan,40,Masters 40-49,66.34,67.5,102.06,111.13,117.93,117.93,52.16,58.97,-63.5,58.97,142.88,151.95,-158.76,151.95,328.85,F,SBD,Wraps,1
Trisha DeCaillet,40,Masters 40-49,84.03,90,83.91,92.99,-97.52,92.99,54.43,58.97,61.23,61.23,117.93,129.27,-136.08,129.27,283.5,F,SBD,Wraps,1
Lisa Stauber,51,Masters 50-59,64.64,67.5,49.9,54.43,56.7,56.7,31.75,34.02,36.29,36.29,74.84,79.38,81.65,81.65,174.63,F,SBD,Wraps,1
Pauline Machado,51,Masters 50-59,77.2,82.5,61.23,65.77,70.31,70.31,49.9,52.16,-54.43,52.16,88.45,92.99,97.52,97.52,219.99,F,SBD,Wraps,1
Barbara Thorsen,52,Masters 50-59,124.28,90+,70.31,74.84,79.38,79.38,43.09,47.63,49.9,49.9,92.99,102.06,108.86,108.86,238.14,F,SBD,Wraps,1
Donna Merritt,60,Masters 60-69,59.42,60,92.99,97.52,99.79,99.79,47.63,-52.16,-52.16,47.63,97.52,102.06,106.59,106.59,254.01,F,SBD,Wraps,1
Wendy Cromwell,62,Masters 60-69,79.92,82.5,45.36,49.9,54.43,54.43,27.22,29.48,-31.75,29.48,70.31,74.84,79.38,79.38,163.29,F,SBD,Wraps,1
Daryl Konsevick,25,Open,51.26,52,99.79,106.59,113.4,113.4,63.5,65.77,68.04,68.04,142.88,149.69,158.76,158.76,340.19,F,SBD,Wraps,1
Martine Corlett,33,Open,51.03,52,56.7,61.23,65.77,65.77,36.29,40.82,43.09,43.09,97.52,102.06,106.59,106.59,215.46,F,SBD,Wraps,2
Michelle Zamora,28,Open,54.88,56,99.79,104.33,-111.13,104.33,49.9,54.43,-56.7,54.43,122.47,131.54,-136.08,131.54,290.3,F,SBD,Wraps,1
Lorena Gomez,23,Open,55.34,56,83.91,-90.72,90.72,90.72,40.82,45.36,-47.63,45.36,106.59,115.67,122.47,122.47,258.55,F,SBD,Wraps,2
Esther Urteaga,28,Open,58.97,60,77.11,86.18,-95.25,86.18,47.63,52.16,54.43,54.43,124.74,133.81,-140.61,133.81,274.42,F,SBD,Wraps,1
Sandi Imai,35,Open,63.16,67.5,115.67,129.27,131.54,131.54,52.16,58.97,63.5,63.5,142.88,156.49,165.56,165.56,360.61,F,SBD,Wraps,1
Emily Raney,23,Open,65.77,67.5,92.99,97.52,-102.06,97.52,52.16,54.43,-56.7,54.43,138.35,147.42,154.22,154.22,306.17,F,SBD,Wraps,2
Kristen Loyd,32,Open,70.99,75,95.25,104.33,115.67,115.67,70.31,72.57,-77.11,72.57,138.35,149.69,154.22,154.22,342.46,F,SBD,Wraps,1
Brittainy Chown,24,Open,71.67,75,102.06,120.2,-127.01,120.2,49.9,56.7,-61.23,56.7,124.74,140.61,145.15,145.15,322.05,F,SBD,Wraps,2
Patricia Morgan,25,Open,71.67,75,86.18,90.72,99.79,99.79,54.43,61.23,-65.77,61.23,127.01,136.08,140.61,140.61,301.64,F,SBD,Wraps,3
Esmeralda Sandoval,23,Open,69.29,75,79.38,88.45,95.25,95.25,47.63,52.16,54.43,54.43,108.86,117.93,127.01,127.01,276.69,F,SBD,Wraps,4
Lena Geide,29,Open,71.21,75,61.23,65.77,70.31,70.31,40.82,43.09,45.36,45.36,81.65,86.18,90.72,90.72,206.38,F,SBD,Wraps,5
Kathryn Martin,38,Open,78.36,82.5,52.16,56.7,61.23,61.23,43.09,49.9,52.16,52.16,74.84,90.72,97.52,97.52,210.92,F,SBD,Wraps,1
Lusialeilani Kuka,19,Teen,77.22,82.5,86.18,95.25,104.33,104.33,63.5,68.04,72.57,72.57,108.86,117.93,127.01,127.01,303.91,F,SBD,Wraps,2
